//////////////////////////////////////////////////////////////////
//
//    FreeLing - Open Source Language Analyzers
//
//    Copyright (C) 2004   TALP Research Center
//                         Universitat Politecnica de Catalunya
//
//    This library is free software; you can redistribute it and/or
//    modify it under the terms of the GNU General Public
//    License as published by the Free Software Foundation; either
//    version 2.1 of the License, or (at your option) any later version.
//
//    This library is distributed in the hope that it will be useful,
//    but WITHOUT ANY WARRANTY; without even the implied warranty of
//    MERCHANTABILITY or FITNESS FOR A PARTICULAR PURPOSE.  See the GNU
//    General Public License for more details.
//
//    You should have received a copy of the GNU General Public
//    License along with this library; if not, write to the Free Software
//    Foundation, Inc., 59 Temple Place, Suite 330, Boston, MA 02111-1307 USA
//
//    contact: Lluis Padro (padro@lsi.upc.es)
//             TALP Research Center
//             despatx C6.212 - Campus Nord UPC
//             08034 Barcelona.  SPAIN
//
////////////////////////////////////////////////////////////////

////////////////////////////////////////////////////////////////
//
//  freeling_pythonAPI.i
//  This is the SWIG input file, used to generate python APIs.
//
////////////////////////////////////////////////////////////////

%module freeling
%{
 #include "freeling.h"
 #include "freeling/tree.h"
 #include "freeling/morfo/traces.h"
 using namespace std;
%}


%include std_string.i
%include std_wstring.i

#define FL_API_PYTHON

%include ../common/templates.i

%include std_set.i
%template(SetString) std::set<std::wstring>;

%include ../common/freeling.i
